<?xml version="1.0" encoding="UTF-8"?>
<session version="1.0">
<refactoring comment="Rename resource &apos;test_3x3/src/helloworld.c&apos; to &apos;test_3x3.c&apos;" description="Rename resource &apos;helloworld.c&apos;" flags="7" id="org.eclipse.ltk.core.refactoring.rename.resource" input="src/helloworld.c" name="test_3x3.c" stamp="1580990493828" updateReferences="true"/>
</session>