<?xml version="1.0" encoding="UTF-8"?>
<session version="1.0">
<refactoring comment="Rename resource &apos;comm_test/src/helloworld.c&apos; to &apos;comm_test.c&apos;" description="Rename resource &apos;helloworld.c&apos;" flags="7" id="org.eclipse.ltk.core.refactoring.rename.resource" input="src/helloworld.c" name="comm_test.c" stamp="1581598485918" updateReferences="true"/>
</session>