#-----------------------------------------------------------
# Webtalk v2019.1 (64-bit)
# SW Build 2552052 on Fri May 24 14:47:09 MDT 2019
# 
# Start of session at: Fri Mar  6 16:23:20 2020
# Process ID: 11637
# Current directory: /home/bsilva/Documents/UnB/Projeto_Final/computer-vision-noc/computer-vision-noc/computer-vision-noc.sdk/webtalk
# Command line: wbtcv -mode batch -source sdk_webtalk.tcl
# Log file: /home/bsilva/Documents/UnB/Projeto_Final/computer-vision-noc/computer-vision-noc/computer-vision-noc.sdk/webtalk/webtalk.log
# Journal file: /home/bsilva/Documents/UnB/Projeto_Final/computer-vision-noc/computer-vision-noc/computer-vision-noc.sdk/webtalk/webtalk.jou
#-----------------------------------------------------------
source sdk_webtalk.tcl
# webtalk_init -webtalk_dir /home/bsilva/Documents/UnB/Projeto_Final/computer-vision-noc/computer-vision-noc/computer-vision-noc.sdk/webtalk
# webtalk_register_client -client project
# webtalk_add_data -client project -key date_generated -value "2020-03-06 16:23:18" -context "software_version_and_target_device"
# webtalk_add_data -client project -key product_version -value "SDK v2019.1" -context "software_version_and_target_device"
# webtalk_add_data -client project -key build_version -value "2019.1" -context "software_version_and_target_device"
# webtalk_add_data -client project -key os_platform -value "amd64" -context "software_version_and_target_device"
# webtalk_add_data -client project -key registration_id -value "211755027_0_0_747" -context "software_version_and_target_device"
# webtalk_add_data -client project -key tool_flow -value "SDK" -context "software_version_and_target_device"
# webtalk_add_data -client project -key beta -value "false" -context "software_version_and_target_device"
# webtalk_add_data -client project -key route_design -value "NA" -context "software_version_and_target_device"
# webtalk_add_data -client project -key target_family -value "NA" -context "software_version_and_target_device"
# webtalk_add_data -client project -key target_device -value "NA" -context "software_version_and_target_device"
# webtalk_add_data -client project -key target_package -value "NA" -context "software_version_and_target_device"
# webtalk_add_data -client project -key target_speed -value "NA" -context "software_version_and_target_device"
# webtalk_add_data -client project -key random_id -value "fivef6m0gg517e8pdl4g5fa8ac" -context "software_version_and_target_device"
# webtalk_add_data -client project -key project_id -value "2019.1_90" -context "software_version_and_target_device"
# webtalk_add_data -client project -key project_iteration -value "90" -context "software_version_and_target_device"
# webtalk_add_data -client project -key os_name -value "Ubuntu" -context "user_environment"
# webtalk_add_data -client project -key os_release -value "Ubuntu 18.04.3 LTS" -context "user_environment"
# webtalk_add_data -client project -key cpu_name -value "Intel(R) Core(TM) i7-3770K CPU @ 3.50GHz" -context "user_environment"
# webtalk_add_data -client project -key cpu_speed -value "4223.889 MHz" -context "user_environment"
# webtalk_add_data -client project -key total_processors -value "1" -context "user_environment"
# webtalk_add_data -client project -key system_ram -value "33.347 GB" -context "user_environment"
# webtalk_register_client -client sdk
# webtalk_add_data -client sdk -key uid -value "1583519388000" -context "sdk\\\\bsp/1583519388000"
# webtalk_add_data -client sdk -key hwid -value "1582830681000" -context "sdk\\\\bsp/1583519388000"
# webtalk_add_data -client sdk -key os -value "standalone" -context "sdk\\\\bsp/1583519388000"
# webtalk_add_data -client sdk -key apptemplate -value "null" -context "sdk\\\\bsp/1583519388000"
# webtalk_add_data -client sdk -key RecordType -value "BSPCreation" -context "sdk\\\\bsp/1583519388000"
# webtalk_add_data -client sdk -key uid -value "NA" -context "sdk\\\\bsp/1583522598249"
# webtalk_add_data -client sdk -key RecordType -value "ToolUsage" -context "sdk\\\\bsp/1583522598249"
# webtalk_add_data -client sdk -key BootgenCount -value "0" -context "sdk\\\\bsp/1583522598249"
# webtalk_add_data -client sdk -key DebugCount -value "18" -context "sdk\\\\bsp/1583522598249"
# webtalk_add_data -client sdk -key PerfCount -value "0" -context "sdk\\\\bsp/1583522598249"
# webtalk_add_data -client sdk -key FlashCount -value "0" -context "sdk\\\\bsp/1583522598249"
# webtalk_add_data -client sdk -key CrossTriggCount -value "0" -context "sdk\\\\bsp/1583522598249"
# webtalk_add_data -client sdk -key QemuDebugCount -value "0" -context "sdk\\\\bsp/1583522598249"
# webtalk_transmit -clientid 1810772817 -regid "211755027_0_0_747" -xml /home/bsilva/Documents/UnB/Projeto_Final/computer-vision-noc/computer-vision-noc/computer-vision-noc.sdk/webtalk/usage_statistics_ext_sdk.xml -html /home/bsilva/Documents/UnB/Projeto_Final/computer-vision-noc/computer-vision-noc/computer-vision-noc.sdk/webtalk/usage_statistics_ext_sdk.html -wdm /home/bsilva/Documents/UnB/Projeto_Final/computer-vision-noc/computer-vision-noc/computer-vision-noc.sdk/webtalk/sdk_webtalk.wdm -intro "<H3>SDK Usage Report</H3><BR>"
# webtalk_terminate
INFO: [Common 17-206] Exiting Webtalk at Fri Mar  6 16:23:20 2020...
